{
  "required": true,
  "minVersion": "0.8",
  "package": "us.mikebartosh.minecraft.anvilswapper.mixin",
  "compatibilityLevel": "JAVA_21",
  "mixins": [
    "MixinAnvilScreenHandler"
  ],
  "client": [
    "MixinAnvilScreen",
    "MixinScreen"
  ],
  "injectors": {
    "defaultRequire": 1
  }
}
