{
  "schemaVersion": 1,
  "id": "anvil-swapper",
  "version": "${version}",

  "name": "Anvil Swapper",
  "description": "A simple mod that adds a button to swap the items in an Anvil. It will also recommend a swap if it is cheaper.",
  "authors": [
    "Michael Bartosh <mike.ebj@protonmail.com>"
  ],
  "contact": {},

  "license": "ARR",
  "icon": "assets/anvil-swapper/icon.png",

  "environment": "*",
  "entrypoints": {
    "main": [
    ]
  },
  "mixins": [
    "anvil-swapper.mixins.json"
  ],

  "depends": {
    "fabricloader": ">=0.15.10",
    "fabric": "*",
    "minecraft": ">=1.21",
    "java": ">=21"
  },
  "suggests": {}
}
